@startuml
'https://plantuml.com/sequence-diagram

autonumber

Actor User

User -> Identity:Username/Password authentication
Identity -> Identity: Validate User Credentials
Identity -> User: Return JWT Token in Authorization Header
User -> Homepage
Homepage -> Homepage: Recognizes authenticated user \nwith incomplete or missing profile
Homepage -> CreateProfile: Create profile for this user
Homepage -> User: Presents profile page to user for completion (or flashing note/link)
@enduml